TEL_HEURE,TEL_JOUR_SEMAINE,TEL_TALKTIME,TEL_QUEUETIME,DOSSIER_PART_AGE,DOSSIER_PART_SEXE,DOSSIER_PART_NB_ENFANTS,DOSSIER_PART_NB_ENFANTS_MINEURS,DOSSIER_PART_ACTIVITE,DOSSIER_PART_CATEGORIE,DOSSIER_PART_TOP_INA_NON_TRAITE,DOSSIER_PART_FLAG_ADH_FUA,DOSSIER_PART_FLAG_ADH_FUR,DOSSIER_PART_FLAG_ADH_FAR,DOSSIER_PART_FLAG_ADH_AUTRES_FM,DOSSIER_PART_FLAG_ADH_FM_SURCOMPLEMENTAIRE,AGT_AGE,AGT_SEXE,AGT_ANCIENNETE,AGT_CONTRAT,AGT_STATUT,AGT_CPT_COMPETENCE,AGT_SITE,CONTACT_TYPE_INTERLOCUTEUR,CONTACT_SUJET,DOSSIER_PART_REGION,TEL_CLASSE_METIER,TEL_TALKTIME_INTERVAL
49175,2,100,64,45,M,3,3,ACTIF,OUVRIER,N,N,N,N,N,O,33,F,7,CDI,EMP,4,DR9,ADH,RG,Normandie,FM,90-120
40009,4,100,554,72,F,1,0,RETRAITE,INDETERMINE,N,N,N,N,N,N,32,F,1,CDD,EMP,1,COUPOLE,ADH,Retraite,Ile-de-France,PRE,90-120
33907,3,100,10,80,F,2,0,INDETERMINE,INDETERMINE,N,N,N,N,N,N,32,F,8,CDI,EMP,5,DR5,AUT,RG,Grand Est,RET,90-120
58420,5,100,0,56,M,0,0,ACTIF,ETAM,N,N,N,N,N,N,27,F,1,CDD,EMP,4,MERIGNAC,ADH,Prévoyance lourde,Hauts-de-France,RET,90-120
55076,3,100,424,40,M,3,3,ACTIF,ETAM,N,N,N,N,N,N,26,F,1,CDD,EMP,12,MERIGNAC,ADH,Prévoyance lourde,Provence-Alpes-Côte d'Azur,FM,90-120
52052,4,100,724,75,M,0,0,RETRAITE,INDETERMINE,N,N,N,N,N,N,41,F,19,CDI,EMP,6,DR5,ADH,RG,Grand Est,RET,90-120
36230,5,100,2,97,F,0,0,INDETERMINE,INDETERMINE,N,N,N,N,N,N,32,F,1,CDD,EMP,2,DR9,ADH,RG,Pays de la Loire,FM,90-120
55011,1,100,272,70,M,0,0,RETRAITE,INDETERMINE,N,N,O,N,N,N,47,F,1,CDD,EMP,14,MERIGNAC,BNF,Retraite,Provence-Alpes-Côte d'Azur,OPS,90-120
46217,5,100,0,80,M,4,0,RETRAITE,INDETERMINE,N,N,N,N,N,N,24,F,1,CDI,EMP,8,SOPHIA,BNF,Action Social,Auvergne-Rhône-Alpes,FM,90-120
